# My various failed attempts at solutions




	for n in g.nodes:
		queue = [n]
		seen = set()
		while len(queue) > 0:
			curr = queue.pop()
			seen.add(curr)
			for e in g.adj[curr]:
				if e.dest in seen:
					continue
				seen.add(e.dest)
				queue.append(e.dest)
				c[(curr, e.dest)] += 1
	#pr(c)
	t = c.most_common(4)
	t = random.choice(list(itertools.combinations(t, 3)))
	for e, _ in t:
		for s in (e, reversed(e)):
			start, end = s
			ne = []
			for edge in g.adj[start]:
				if edge.dest != end:
					ne.append(edge)
			g.adj[start] = ne
	pr(t)
	for n in g.nodes:
		queue = [n]
		seen = set()
		while len(queue) > 0:
			curr = queue.pop()
			seen.add(curr)
			for e in g.adj[curr]:
				if e.dest in seen:
					continue
				seen.add(e.dest)
				queue.append(e.dest)
				c[(curr, e.dest)] += 1
        return len(seen) * (len(g.nodes) - len(seen))


	while len(g.nodes) > 2:
		#pr(g)
		pr(len(g.nodes))
		edges = []
		for k, v in g.adj.items():
			if k not in g.nodes:
				continue
			for n in v:
				if n.dest not in g.nodes:
					continue
				edges.append((k, n.dest))
		pr(edges)
		r = random.choice(edges)
		#pr(r)
		#pr("\n\n\n\n\n\n")
		removes = r
		nn = "".join(s for s in r)
		newedges = []
		for n in removes:
			newedges.extend(g.adj[n])
		neweredges = []
		for n in newedges:
			if n.dest in removes:
				pass
			else:
				neweredges.append(n)
		g.adj[nn] = neweredges
		for n2 in g.nodes:
			ne = []
			for e in g.adj[n2]:
				if e.dest in r:
					ne.append(graph.Edge(nn))
				else:
					ne.append(e)
			g.adj[n2] = ne
		#pr(g.nodes, r, nn)
		g.nodes.remove(r[0])
		g.nodes.remove(r[1])
		del g.adj[r[0]]
		del g.adj[r[1]]
		g.nodes.append(nn)
	pr(g)
	o = 1
	for n in g.nodes:
		assert len(g.adj[n]) == 3
		o *= len(n) // 3
	return o





	c = Counter()
	for n in g.nodes:
		queue = [n]
		seen = set()
		while len(queue) > 0:
			curr = queue.pop()
			seen.add(curr)
			for e in g.adj[curr]:
				if e.dest in seen:
					continue
				seen.add(e.dest)
				queue.append(e.dest)
				c[(curr, e.dest)] += 1
	#pr(c)
	t = c.most_common(4)
	t = random.choice(list(itertools.combinations(t, 3)))
	for e, _ in t:
		for s in (e, reversed(e)):
			start, end = s
			ne = []
			for edge in g.adj[start]:
				if edge.dest != end:
					ne.append(edge)
			g.adj[start] = ne
	pr(t)
	for n in g.nodes:
		queue = [n]
		seen = set()
		while len(queue) > 0:
			curr = queue.pop()
			seen.add(curr)
			for e in g.adj[curr]:
				if e.dest in seen:
					continue
				seen.add(e.dest)
				queue.append(e.dest)
				c[(curr, e.dest)] += 1
		pr(seen, len(seen))
		return len(seen) * (len(g.nodes) - len(seen))
	return







	for k, v in d.items():
		pr(k, v)
	e = []
	m = max(len(v) for v in d.values())
	gk = []
	for k, v in d.items():
		if m - 1 <= len(v):
			gk.append(k)
			pr(k, v)
			for v2 in v:
				e.append((k, v2.dest))
				e.append((v2.dest, k))
	pr(gk)
	start_node = random.choice(g.nodes)
	seen = []
	queue = [start_node]
	ne = defaultdict(list)
	while len(queue) > 0:
		nxt = queue.pop(0)
		dests = g.adj[nxt]
		for e in dests:
			if e.dest in seen:
				continue
			if any(e.dest == e2.dest for e2 in ne[nxt]):
				continue
			ne[nxt].append(graph.Edge(e.dest))
			seen.append(nxt)
			queue.append(e.dest)
	ng = graph.Graph(g.nodes, ne)
	ng.adj["s"] = [graph.Edge(start_node)]
	for n in ng.nodes:
		if len(ng.adj[n]) == 0:
			ng.adj[n] = [graph.Edge("t")]
	ng.nodes.append("s")
	ng.nodes.append("t")

	flows = defaultdict(int)
	while True:
		queue = ["s"]
		seen = set()
		found = False
		tree = defaultdict(set)
		while len(queue) > 0:
			curr = queue.pop(0)
			seen.add(curr)
			for e in ng.adj[curr]:
				if e.dest not in seen and (curr == "s" or e.dest == "t" or flows[(curr, e.dest)] < 1):
					queue.append(e.dest)
					tree[curr].add(e.dest)
					seen.add(e.dest)
			if curr == "t":
				found = True
				break
		if found:
			#pr(tree)
			path = ["t"]
			curr = "t"
			while curr != "s":
				for k, v in tree.items():
					if curr in v:
						path.append(k)
						curr = k
			pr(path)
			path.reverse()
			m = 1
			for i in range(len(path) - 1):
				flows[(path[i], path[i + 1])] += m
				flows[(path[i + 1], path[i])] -= m
		else:
			break
	pr(flows)
	for k, v in flows.items():
		if v < 0:
			ng.adj[k[0]].append(graph.Edge(k[1]))
	curr = "s"
	queue = [curr]
	seen = set()
	for k, v in flows.items():
		if v == 1:
			pr(k)
	while len(queue) > 0:
		curr = queue.pop()
		seen.add(curr)
		for e in ng.adj[curr]:
			if e.dest not in seen and flows[(curr, e.dest)] != 1:
				queue.append(e.dest)
				seen.add(e.dest)
	pr(seen)
	pr(len(seen) - 1)
	pr(len(g.nodes))
	pr(len(g.nodes) - len(seen) - 1)
	return (len(seen) - 1) * (len(g.nodes) - len(seen) - 1)

















	return
	pr(ng)
	routes = []
	for _ in range(1000):
		curr = g.nodes[0]
		hist = [curr]
		while True:
			if len(ng.adj[curr]) == 0:
				routes.append(hist)
				break
			nxt = random.choice(ng.adj[curr]).dest
			hist.append(nxt)
			curr = nxt
	pr(routes)
	c = Counter()
	for r in routes:
		for i in range(len(r) - 1):
			c[tuple(sorted((r[i], r[i + 1])))] += 1
	pr(c)
	pr(len(r))
	target = 1000
	edges = []
	for k, v in c.items():
		nt = target - v
		for k2, v2 in c.items():
			if k == k2:
				continue
			if (nt - v2) in c.values():
				pr(k, k2)
				for k3, v3 in c.items():
					if v3 == (nt - v2):
						edges.append((k, k2, k3))
	pr(edges)
	return




	s = set()
	for i in range(1, len(n)):
		s.add((len(n) - i) * i)
	pr(sorted(s))
	return


	curr = n[0]
	queue = [curr]
	tree = defaultdict(list)
	seen = set()
	while len(queue) > 0:
		curr = queue.pop()
		seen.add(curr)
		branch = []
		for a in g.adj[curr]:
			if a.dest in seen:
				continue
			branch.append(a.dest)
			queue.append(a.dest)
		tree[curr] = branch
	pr(tree)
	return
	"""for i1, n1 in enumerate(n[1:]):
		pr(n1)
		for i2, n2 in enumerate(n[i1 + 2:]):
			for n3 in n[i1 + i2 + 2:]:
				# DFS from 
				queue = [n[0]]
				seen = set()
				seen.add(n[0])
				while len(queue) > 0:
					curr = queue.pop(0)
					for e in g.adj[curr]:
						if e.dest not in seen and e.dest not in (n1, n2, n3):
							seen.add(e.dest)
							queue.append(e.dest)
				#if len(seen) < len(n):
				#	pr(n1, n2, n3)"""



	return





	return
	for k in g.nodes:
		if len(ng.adj[k]) == 0:
			target = k
			break
	goal = (start_node, target)
	paths = [[goal[0]]]
	while True:
		np = []
		for p in paths:
			for e in ng.adj[p[-1]]:
				if e.dest in p:
					continue
				if e.dest == goal[1]:
					continue
				npath = p.copy()
				npath.append(e.dest)
				np.append(npath)
	pr(paths)

	return




	sys.setrecursionlimit(2 * len(g.nodes))
	ats = ng.all_topo_sorts()
	#pr(ats)
	c = Counter()
	for ts in ats:
		for i in range(len(ts) - 1):
			c[tuple(sorted((ts[i], ts[i + 1])))] += 1
	pr(c, len(ats))





	return




	opts = []
	for n1 in gk:
		for n2 in gk:
			if n1 == n2:
				continue
			pr(n1, n2)
			for n3 in gk:
				if n3 in (n1, n2):
					continue
				nn = g.nodes.copy()
				ne = g.adj.copy()
				ng = graph.Graph(nn, ne)
				for n in (n1, n2, n3):
					ng = ng.remove_node(n)
				cc = ng.connected_components()
				#pr(n1, n2, n3, cc)
				#if n1 in "hfxpzlbvbcmgnvdjqt" and n2 in "hfxpzlbvbcmgnvdjqt" and n3 in "hfxpzlbvbcmgnvdjqt":
				#	pr(ng)
				if len(Counter(cc.values())) > 1:
					pr(n1, n2, n3, cc)
					vals = list(Counter(cc.values()).values())
					newopts = len(opts) == 0
					for a in ((3, 0), (2, 1), (1, 2), (0, 3)):
						if newopts:
							opts.append((vals[0] + a[0], vals[1] + a[1]))
						else:
							pr(opts, vals[0] + a[0], vals[1] + a[1])

					#assert False










	return
	goal = ("cmg", "bvb")
	paths = [[goal[0]]]
	while True:
		np = []
		for p in paths:
			for e in g.adj[p[-1]]:
				if e.dest in p:
					continue
				if e.dest == goal[1]:
					continue
				npath = p.copy()
				npath.append(e.dest)
				np.append(npath)
	pr(paths)














	z

	for i, e1 in enumerate(e):
		pr(e1, i)
		for i2, e2 in enumerate(e[i:]):
			if e1 == e2:
				continue
			for e3 in e[i + i2:]:
				if e3 in (e1, e2):
					continue
				ne = defaultdict(list)
				for k, v in g.adj.items():
					for v2 in v:
						s = k
						t = v2.dest
						if (s == e1[0] and t == e1[1]) or (s == e1[1] and t == e1[0]) or (s == e2[0] and t == e2[1]) or (s == e2[1] and t == e2[0]) or (s == e3[0] and t == e3[1]) or (s == e3[1] and t == e3[0]):
							continue
						ne[s].append(graph.Edge(t))
				ng = graph.Graph(g.nodes, ne)
				cc = ng.connected_components()
				d = Counter(cc.values())
				if len(d) == 2:
					pr(cc)
					o = 1
					for v in d.values():
						o *= v
					return o

				elif len(d) > 2:
					pr(cc)
					assert False
	return















	pr(n)
	

	pr(sum(len(e) for e in d.values()))